// Jest Snapshot v1, https://goo.gl/fbAQLP

exports[`components | CharacterSeries | index should render CharacteCharacterSeriesrComics 1`] = `
<div>
  <div
    class="MuiGrid-root MuiGrid-container MuiGrid-spacing-xs-2"
  >
    <div
      class="MuiGrid-root MuiGrid-item MuiGrid-grid-xs-12"
    >
      <h6
        class="MuiTypography-root makeStyles-title-3 MuiTypography-h6"
      >
        Series
      </h6>
      <div
        class="MuiGrid-root makeStyles-demo-2"
      >
        <div
          class="MuiGrid-root"
        >
          <p
            class="MuiTypography-root MuiTypography-body1"
          >
            Avengers: The Initiative (2007 - 2010)
          </p>
          <hr
            class="MuiDivider-root"
          />
        </div>
        <div
          class="MuiGrid-root"
        >
          <p
            class="MuiTypography-root MuiTypography-body1"
          >
            Deadpool (1997 - 2002)
          </p>
          <hr
            class="MuiDivider-root"
          />
        </div>
        <div
          class="MuiGrid-root"
        >
          <p
            class="MuiTypography-root MuiTypography-body1"
          >
            Marvel Premiere (1972 - 1981)
          </p>
          <hr
            class="MuiDivider-root"
          />
        </div>
      </div>
    </div>
  </div>
</div>
`;
