// Jest Snapshot v1, https://goo.gl/fbAQLP

exports[`components | Characters | index should render Characters 1`] = `
<div>
  <div
    class="MuiGrid-root"
  >
    <div
      align="center"
      class="MuiGrid-root"
    >
      <p
        class="MuiTypography-root makeStyles-title-1 MuiTypography-body1"
      >
        Marvel Characters
      </p>
    </div>
    <div
      align="center"
      class="MuiGrid-root MuiGrid-container MuiGrid-justify-xs-space-around"
    />
  </div>
</div>
`;
