// Jest Snapshot v1, https://goo.gl/fbAQLP

exports[`components | Title | index should render Title 1`] = `
<div>
  <div
    align="center"
    class="MuiGrid-root"
  >
    <p
      class="MuiTypography-root makeStyles-title-1 MuiTypography-body1"
    >
      Marvel Characters
    </p>
  </div>
</div>
`;
